{
	"schema_version": "2.0",
	"packages": [
		{
			"name": "BlackBird_ColorScheme",
			"details": "https://bitbucket.org/jonatasnardi/black-bird-color-scheme",
			"labels": ["language syntax", "auto-complete", "build system"],
			"releases": [
				{
					"sublime_text": "*",
					"details": "https://bitbucket.org/jonatasnardi/black-bird-color-scheme"
				}
			]
		}
	]
}